Colocation data
…
weeks <- str_remove_all(files, "^.*__|.csv")

Loading the colocation data into a list (one slot per week):

colocation <- paste0(folder, "/", dir(folder)) %>%
  map(readr::read_csv) %>%
  setNames(weeks)

The colocation data looks like this:

head(colocation, 1)

## $`2020-03-03`
## # A tibble: 448,665 x 15
##    polygon1_id polygon1_name lon_1 lat_1 name_stack_1 fb_population_1
##          <dbl> <chr>         <dbl> <dbl> <chr>                  <dbl>
##  1      834298 Huyn L Sn   109.  15.4 Qung Ngi              156
##  2      834671 Huyn  Th   108.  11.6 Lm ng Pr             123
##  3      834269 Huyn Hng   107.  16.4 Tha Thin              850
##  4      834290 Huyn Hip   108.  15.5 Qung Nam P             206
##  5      834320 Th X Bnh   107.  11.7 Bnh Phc              991
##  6      834672 Huyn Ct Ti  107.  11.7 Lm ng Pr             109
##  7      834652 Huyn Tuy Ph  109.  11.4 Bnh Thun             1555
##  8      834798 Huyn an Ph  106.  21.1 Hanoi City             2640
##  9      834599 Huyn ng H  106.  20.5 Thi Bnh P            1819
## 10      834336 Huyn Vnh H  106.  10.9 Long An Pro             422
## #  with 448,655 more rows, and 9 more variables: polygon2_id <dbl>,
## #   polygon2_name <chr>, lon_2 <dbl>, lat_2 <dbl>, name_stack_2 <chr>,
## #   fb_population_2 <dbl>, link_value <dbl>, country <chr>, ds <date>
…
